{
    "profiles": [
        {
            "jid": "ttest11@conversejs.org",
            "name": "Test User 1"
        },
        {
            "jid": "ttest22@conversejs.org",
            "name": "Test User 2"
        },
        {
            "jid": "ttest33@conversejs.org",
            "name": "Test User 3"
        },
        {
            "jid": "ttest44@conversejs.org",
            "name": "Test User 4"
        },
        {
            "jid": "ttest55@conversejs.org",
            "name": "Test User 5"
        }
    ]
}